Intro to Tidyverse
…
Ive truncated the output to save space, but on your screen youll see that this displays the entire contents of the dataframe. When we print the tibble version, its a lot shorter.

menu

## # A tibble: 260 x 6
##     Category                                                          Item
##        <chr>                                                         <chr>
##  1 Breakfast                                                  Egg McMuffin
##  2 Breakfast                                             Egg White Delight
##  3 Breakfast                                              Sausage McMuffin
##  4 Breakfast                                     Sausage McMuffin with Egg
##  5 Breakfast                              Sausage McMuffin with Egg Whites
##  6 Breakfast                                          Steak & Egg McMuffin
##  7 Breakfast                 Bacon, Egg & Cheese Biscuit (Regular Biscuit)
##  8 Breakfast                   Bacon, Egg & Cheese Biscuit (Large Biscuit)
##  9 Breakfast Bacon, Egg & Cheese Biscuit with Egg Whites (Regular Biscuit)
## 10 Breakfast   Bacon, Egg & Cheese Biscuit with Egg Whites (Large Biscuit)
## # ... with 250 more rows, and 4 more variables: Oz <dbl>, Calories <int>,
## #   Fat <dbl>, Sugars <int>
…
Transforming your data

Now that youve got your data loaded in, youll proably need to do some processing before moving on to analysis. In my experience, my R code always starts off with many lines of preprocessing to make sure everything is nice and clean and consistently formatted before moving on to the statistics and visualizations.

What do I mean by processing? Well, its likely that your data isnt exactly the way it needs to be for analysis. Maybe the column names arent right, or a number thats supposed to be a number is actually being treated like text, or you may want to add, remove, or reorder columns entirely. Even if your data is pristine, you may have to do set a reference level for categorical data or filter the data in some way. All of this can be done using functions in the dplyr package, one of the core tidyverse packages. Ill cover some basics, but you can read more about the topics in this section R for Data Science chapters 18 on Pipes (http://r4ds.had.co.nz/pipes.html), and Chapter 5 Data Transformation (http://r4ds.had.co.nz/transform.html)

Piping

Before we move on, I want to pause and introduce some tidyverse syntax. To explain how its used, lets say we want to see the McDonalds menu items. We could split this up into two steps, reading it in and then printing it:

menu <- read_csv("http://joeystanley.com/data/menu.csv")
print(menu)

## # A tibble: 260 x 6
##     Category                     Item    Oz Calories   Fat Sugars
##        <chr>                    <chr> <dbl>    <int> <dbl>  <int>
##  1 Breakfast             Egg McMuffin   4.8      300    13      3
##  2 Breakfast        Egg White Delight   4.8      250     8      3
##  3 Breakfast         Sausage McMuffin   3.9      370    23      2
##  4 Breakfast Sausage McMuffin with Eg   5.7      450    28      2
##  5 Breakfast Sausage McMuffin with Eg   5.7      400    23      2
##  6 Breakfast     Steak & Egg McMuffin   6.5      430    23      3
##  7 Breakfast Bacon, Egg & Cheese Bisc   5.3      460    26      3
##  8 Breakfast Bacon, Egg & Cheese Bisc   5.8      520    30      4
##  9 Breakfast Bacon, Egg & Cheese Bisc   5.4      410    20      3
## 10 Breakfast Bacon, Egg & Cheese Bisc   5.9      470    25      4
## # ... with 250 more rows
…
There are lots of benefits to using the pipe. First, it saves on typing. You only have to type the name of the dataframe (menu) once. This is especially nice if you have some long dataframe name. Second, when you execute the command, itll interpret both lines as a single line, so it saves a couple cliks/keystrokes, etc. And with the pipe, youre not limited to just two functions, you can stack as many of them as you want to make what looks like a paragraph of code that all gets treated as one. More on that in a sec.Finally, because its all treated as one command, you dont need to come up with names for the various intermediate steps (which are confusing if you have too many, and get very long) like menu.clean or menu.clean.renamed or menu3.

The reason why this works is because in pretty much all the functions in the tidyverse, the first argument is data=.... Since the pipe takes the thing on the left and makes it the first argument on the right, if that first argument is data, then itll fill that slot perfectly.

Removing Columns

So when we look at our McDonalds data, we see that the Item name is super wide (unless you truncated it like I did). It was so wide that when we printed anything, we didnt see any of the other columns. We could just remove it entirely, which would free things up. We can do this with the select function.

With select, as long as were piping some data into it, all we need to do is specifiy which columns we want to keep, and itll keep them. So if we wanted to just look at the Calories and Sugars, we could do that easily:

menu %>%
    select(Calories, Sugars)

## # A tibble: 260 x 2
##    Calories Sugars
##       <int>  <int>
##  1      300      3
##  2      250      3
##  3      370      2
##  4      450      2
##  5      400      2
##  6      430      3
##  7      460      3
##  8      520      4
##  9      410      3
## 10      470      4
## # ... with 250 more rows

Perfect, with just a simple line of code, we were able to do that. Notice that we dont even need quotes around the column names, which saves some typing. If we wanted to look at everything except the menu item name, we just put a minus sign before it:

menu %>%
    select(-Item)

## # A tibble: 260 x 5
##     Category    Oz Calories   Fat Sugars
##        <chr> <dbl>    <int> <dbl>  <int>
##  1 Breakfast   4.8      300    13      3
##  2 Breakfast   4.8      250     8      3
##  3 Breakfast   3.9      370    23      2
##  4 Breakfast   5.7      450    28      2
##  5 Breakfast   5.7      400    23      2
##  6 Breakfast   6.5      430    23      3
##  7 Breakfast   5.3      460    26      3
##  8 Breakfast   5.8      520    30      4
##  9 Breakfast   5.4      410    20      3
## 10 Breakfast   5.9      470    25      4
## # ... with 250 more rows

It removes that column.

What if we wanted the Oz, Colaries, Fat, and Sugars column and wanted to leave off Category and Item? You could add minus signs before each one you want to remove:

menu %>%
    select(-Category, -Item)

## # A tibble: 260 x 4
##       Oz Calories   Fat Sugars
##    <dbl>    <int> <dbl>  <int>
##  1   4.8      300    13      3
##  2   4.8      250     8      3
##  3   3.9      370    23      2
##  4   5.7      450    28      2
##  5   5.7      400    23      2
##  6   6.5      430    23      3
##  7   5.3      460    26      3
##  8   5.8      520    30      4
##  9   5.4      410    20      3
## 10   5.9      470    25      4
## # ... with 250 more rows

Alternatively, if the columns you want to keep are in order, you can just print the first and last one and put a colon (:) between them, and itll get everything in between:

menu %>%
    select(Oz:Sugars)

## # A tibble: 260 x 4
##       Oz Calories   Fat Sugars
##    <dbl>    <int> <dbl>  <int>
##  1   4.8      300    13      3
##  2   4.8      250     8      3
##  3   3.9      370    23      2
##  4   5.7      450    28      2
##  5   5.7      400    23      2
##  6   6.5      430    23      3
##  7   5.3      460    26      3
##  8   5.8      520    30      4
##  9   5.4      410    20      3
## 10   5.9      470    25      4
## # ... with 250 more rows

This is analgous to the R syntax of creating sequential numbers (a list from 1 to 10 would be simply 1:10).

So using the select function is super useful because you can very quickly pick out the columns you want to see or remove columns you dont need. The code is easy and intuitive to write and its clear from reading it what its doing. Thats what makes tidyverse so useful.

Reordering Columns

You can also use select to reorder your columns. Just put the column names in whatever order you want and thats how theyll appear:

menu %>%
    select(Oz, Sugars, Fat, Calories)

## # A tibble: 260 x 4
##       Oz Sugars   Fat Calories
##    <dbl>  <int> <dbl>    <int>
##  1   4.8      3    13      300
##  2   4.8      3     8      250
##  3   3.9      2    23      370
##  4   5.7      2    28      450
##  5   5.7      2    23      400
##  6   6.5      3    23      430
##  7   5.3      3    26      460
##  8   5.8      4    30      520
##  9   5.4      3    20      410
## 10   5.9      4    25      470
## # ... with 250 more rows

To accomplish the same thing in base R, as far as I know youd have to specify the columns by numbers (the above code would be something like menu <- menu[c(3,6,5,4),]). This is super annoying for lost of reasons: 1) you have to figure out what number each column is, which is not easy if you have many columns; 2) if your dataset changes, your code breaks because column 3 might not always be the Oz column; 3) its not clear from reading the code what columns youre keeping. Tidyverse solves all these problems by just using the names instead of numbers.

An alternative in base R is to use the subset function, which behaves very similarly to select. Heres a base R equivalent:

# Base R equivalent
subset(menu, select=c(Oz, Sugars, Fat, Calories))

## # A tibble: 260 x 4
##       Oz Sugars   Fat Calories
##    <dbl>  <int> <dbl>    <int>
##  1   4.8      3    13      300
##  2   4.8      3     8      250
##  3   3.9      2    23      370
##  4   5.7      2    28      450
##  5   5.7      2    23      400
##  6   6.5      3    23      430
##  7   5.3      3    26      460
##  8   5.8      4    30      520
##  9   5.4      3    20      410
## 10   5.9      4    25      470
## # ... with 250 more rows

With just a few columns, its not a big deal to type everything in tidyverse, but if you have a spreadsheet with many columns, it can still get tedious, especially if all you want to do is move one column around. For this reason, dplyr comes with the everything function, which is shorthand for all other variables." So if you wanted to move the Sugars column to the front, you can just type that column name and then everything():

menu %>%
    select(Sugars, everything())

## # A tibble: 260 x 6
##    Sugars  Category                     Item    Oz Calories   Fat
##     <int>     <chr>                    <chr> <dbl>    <int> <dbl>
##  1      3 Breakfast             Egg McMuffin   4.8      300    13
##  2      3 Breakfast        Egg White Delight   4.8      250     8
##  3      2 Breakfast         Sausage McMuffin   3.9      370    23
##  4      2 Breakfast Sausage McMuffin with Eg   5.7      450    28
##  5      2 Breakfast Sausage McMuffin with Eg   5.7      400    23
##  6      3 Breakfast     Steak & Egg McMuffin   6.5      430    23
##  7      3 Breakfast Bacon, Egg & Cheese Bisc   5.3      460    26
##  8      4 Breakfast Bacon, Egg & Cheese Bisc   5.8      520    30
##  9      3 Breakfast Bacon, Egg & Cheese Bisc   5.4      410    20
## 10      4 Breakfast Bacon, Egg & Cheese Bisc   5.9      470    25
## # ... with 250 more rows

Again, this is super useful for when you have tons of columns and only need to move a couple up towards the front.

So the select function is great because it can take care of a lot of stuff like removing and reordering columns all at once. The syntax is intuitive and clear. And, as it turns out, the function returns your modified dataframe, so you can then pipe it onto other tidyverse functions for additional processing. Pretty cool.

Adding columns

Weve seen how to remove and reorder columns with select, so how do we add columns? Lets say we want to take our McDonalds data and create a new column. We have information about the weight of the item (in ounces) and both the fat and sugar content. What if we wanted to look at the most sugar per ounce? For this, we can use the mutate function, which creates a new column and tags it onto the end.

menu %>%
    mutate(sugar_per_oz = Sugars / Oz) %>%
    select(sugar_per_oz, everything())

## # A tibble: 260 x 7
##    sugar_per_oz  Category                     Item    Oz Calories   Fat
##           <dbl>     <chr>                    <chr> <dbl>    <int> <dbl>
##  1    0.6250000 Breakfast             Egg McMuffin   4.8      300    13
##  2    0.6250000 Breakfast        Egg White Delight   4.8      250     8
##  3    0.5128205 Breakfast         Sausage McMuffin   3.9      370    23
##  4    0.3508772 Breakfast Sausage McMuffin with Eg   5.7      450    28
##  5    0.3508772 Breakfast Sausage McMuffin with Eg   5.7      400    23
##  6    0.4615385 Breakfast     Steak & Egg McMuffin   6.5      430    23
##  7    0.5660377 Breakfast Bacon, Egg & Cheese Bisc   5.3      460    26
##  8    0.6896552 Breakfast Bacon, Egg & Cheese Bisc   5.8      520    30
##  9    0.5555556 Breakfast Bacon, Egg & Cheese Bisc   5.4      410    20
## 10    0.6779661 Breakfast Bacon, Egg & Cheese Bisc   5.9      470    25
## # ... with 250 more rows, and 1 more variables: Sugars <int>
…
# Base R equivalent
menu_temp <- menu
menu_temp$sugar_per_oz <- menu_temp$Sugars / menu_temp$Oz
menu_temp <- subset(menu_temp, select=c(sugar_per_oz, Category:Sugars))

When adding columns using mutate, you can add as many additional columns as you want into a single function as long as theyre separated by commas. Here, I create the sugar_per_oz column as well as fat_per_oz and calories_per_oz.

menu %>%
    mutate(sugar_per_oz = Sugars / Oz,
           fat_per_oz   = Fat / Oz,
           calories_per_oz = Calories / Oz) %>%
    select(sugar_per_oz, fat_per_oz, calories_per_oz, Item, everything())

## # A tibble: 260 x 9
##    sugar_per_oz fat_per_oz calories_per_oz                     Item
##           <dbl>      <dbl>           <dbl>                    <chr>
##  1    0.6250000   2.708333        62.50000             Egg McMuffin
##  2    0.6250000   1.666667        52.08333        Egg White Delight
##  3    0.5128205   5.897436        94.87179         Sausage McMuffin
##  4    0.3508772   4.912281        78.94737 Sausage McMuffin with Eg
##  5    0.3508772   4.035088        70.17544 Sausage McMuffin with Eg
##  6    0.4615385   3.538462        66.15385     Steak & Egg McMuffin
##  7    0.5660377   4.905660        86.79245 Bacon, Egg & Cheese Bisc
##  8    0.6896552   5.172414        89.65517 Bacon, Egg & Cheese Bisc
##  9    0.5555556   3.703704        75.92593 Bacon, Egg & Cheese Bisc
## 10    0.6779661   4.237288        79.66102 Bacon, Egg & Cheese Bisc
## # ... with 250 more rows, and 5 more variables: Category <chr>, Oz <dbl>,
## #   Calories <int>, Fat <dbl>, Sugars <int>

So the mutate function is really handy for adding new columns, again with easy-to-understand syntax that makes it easy to read and write.

Global changes to columns

With mutate you can actually make some substantial changes to columns. Lets say you like the Oz column, but you want it rounded to the nearest integer, rather than with decimals. We can do this with the base R round funtion, specifiying that we want it to round to zero decimal places. (Ill rearrange the columns so you can more easily see the changes.)

menu %>%
    mutate(Oz_rounded = round(Oz, 0)) %>%
    select(Category:Oz, Oz_rounded, everything())

## # A tibble: 260 x 7
##     Category                     Item    Oz Oz_rounded Calories   Fat
##        <chr>                    <chr> <dbl>      <dbl>    <int> <dbl>
##  1 Breakfast             Egg McMuffin   4.8          5      300    13
##  2 Breakfast        Egg White Delight   4.8          5      250     8
##  3 Breakfast         Sausage McMuffin   3.9          4      370    23
##  4 Breakfast Sausage McMuffin with Eg   5.7          6      450    28
##  5 Breakfast Sausage McMuffin with Eg   5.7          6      400    23
##  6 Breakfast     Steak & Egg McMuffin   6.5          6      430    23
##  7 Breakfast Bacon, Egg & Cheese Bisc   5.3          5      460    26
##  8 Breakfast Bacon, Egg & Cheese Bisc   5.8          6      520    30
##  9 Breakfast Bacon, Egg & Cheese Bisc   5.4          5      410    20
## 10 Breakfast Bacon, Egg & Cheese Bisc   5.9          6      470    25
## # ... with 250 more rows, and 1 more variables: Sugars <int>

In fact, if we know thats what we want to do with the Oz column, we can just overwrite it by creating a new column with the same name as an existing one.

menu %>%
    mutate(Oz = round(Oz, 0))

## # A tibble: 260 x 6
##     Category                     Item    Oz Calories   Fat Sugars
##        <chr>                    <chr> <dbl>    <int> <dbl>  <int>
##  1 Breakfast             Egg McMuffin     5      300    13      3
##  2 Breakfast        Egg White Delight     5      250     8      3
##  3 Breakfast         Sausage McMuffin     4      370    23      2
##  4 Breakfast Sausage McMuffin with Eg     6      450    28      2
##  5 Breakfast Sausage McMuffin with Eg     6      400    23      2
##  6 Breakfast     Steak & Egg McMuffin     6      430    23      3
##  7 Breakfast Bacon, Egg & Cheese Bisc     5      460    26      3
##  8 Breakfast Bacon, Egg & Cheese Bisc     6      520    30      4
##  9 Breakfast Bacon, Egg & Cheese Bisc     5      410    20      3
## 10 Breakfast Bacon, Egg & Cheese Bisc     6      470    25      4
## # ... with 250 more rows

Normally, I wouldnt recommend doing this unless youre sure you know that you dont need the rounded data. Youre of course only modifying the data in R only and your original dataset (the one thats saved as a file on your computer) is unmodifed.

However, there is one very handy way that you can use this overwriting trick. If your data isnt formatted the right way (for example, R thinks a particular column is a categorical variable when in reality its a number), you can modify it using this mutate function. In our McDonalds data, we probably want to treat Category as a factor rather than as a character vector. We can do that by creating a new column named Category that is defined as just the existing Category column wrapped up in the as.factor function. Because the new column has the same name as an existing one, itll just overwrite it.

menu <- menu %>%
    mutate(Category = as.factor(Category)) %>%
    print()

## # A tibble: 260 x 6
##     Category                     Item    Oz Calories   Fat Sugars
##       <fctr>                    <chr> <dbl>    <int> <dbl>  <int>
##  1 Breakfast             Egg McMuffin   4.8      300    13      3
##  2 Breakfast        Egg White Delight   4.8      250     8      3
##  3 Breakfast         Sausage McMuffin   3.9      370    23      2
##  4 Breakfast Sausage McMuffin with Eg   5.7      450    28      2
##  5 Breakfast Sausage McMuffin with Eg   5.7      400    23      2
##  6 Breakfast     Steak & Egg McMuffin   6.5      430    23      3
##  7 Breakfast Bacon, Egg & Cheese Bisc   5.3      460    26      3
##  8 Breakfast Bacon, Egg & Cheese Bisc   5.8      520    30      4
##  9 Breakfast Bacon, Egg & Cheese Bisc   5.4      410    20      3
## 10 Breakfast Bacon, Egg & Cheese Bisc   5.9      470    25      4
## # ... with 250 more rows
…
