Bones Workshop
…
  # Do the exact same thing for the Min Age Column
  mutate(`Min Age` = fct_recode(`Min Age`, "2 mos" = "2mos", "0" = "birth", "0" = "Birth")) %>%
  separate(`Min Age`, into = c("Min Age", "text"), sep = " ", fill = "right", convert = TRUE) %>%
  mutate(`Min Age` = if_else(is.na(text), `Min Age`, `Min Age`/12)) %>%
  select(-text) %>%
  
  # Clean up the Sex column
  mutate(Sex = fct_collapse(`Summary Sex Det.`,
                            Female = c("Female", "Female?"),
                            Male   = c("Male", "Male?"))) %>%
  print()

## # A tibble: 252 x 25
##    `Burial #` `Cribra orbitalia` `Porotic hyperostosis` `Max LEH score`
##    <chr>                   <dbl>                  <dbl>           <dbl>
##  1 RO-938                      0                      0               0
##  2 RO-640                      0                      0               0
##  3 RO-1163                     0                      0               0
##  4 RO-1511                     0                      0               0
##  5 RO-1641                     0                      0               0
##  6 RO-1671                     0                      0               0
##  7 RO-533                      0                      0               0
##  8 RO-637                      0                      0               0
##  9 RO-710                      0                      0               0
## 10 RO-713                      0                      0               0
## # ... with 242 more rows, and 21 more variables: `Is periostitis
## #   present?` <dbl>, `L shoulder DJD` <dbl>, `R shoulder DJD` <dbl>, `L
## #   elbow DJD` <dbl>, `R elbow DJD` <dbl>, `L hip DJD` <dbl>, `R hip
## #   DJD` <dbl>, `L knee DJD` <dbl>, `R knee DJD` <dbl>, `L wrist/hand
## #   DJD` <dbl>, `R wrist/hand DJD` <dbl>, `L ankle/foot DJD` <dbl>, `R
## #   ankle/foot DJD` <dbl>, `cerv vert DJD` <dbl>, `thor vert DJD` <dbl>,
## #   `lum vert DJD` <dbl>, `Summary Sex Det.` <chr>, `Summary
## #   age-at-death` <chr>, `Min Age` <dbl>, `Max Age` <dbl>, Sex <fct>
…
