…
I've already removed most of the really bad outliers, but there are a few things I still need to do to get this data ready. First, I'll keep just the vowels with primary stress and remove /ɹ/ with the `filter` function. Then, I'll make all the words lowercase with `mutate`. I'll also create a new column that just numbers the rows sequentially which will give each vowel it's own unique identifier. For simplicity, I'm also going to remove some columns that we don't need for today---or rather, keep just the columns I need---using `select`. All I want for now are the ID I just created, the vowel, the word, and all the F1.20., F2.20., F1.35., etc. columns. This last group are formant measurements at 20%, 35%, 50%, 65%, and 80% into the vowels' durations. These five points give us the trajectory data we need. (I'll toss out the plain `F1`, `F2`, and `F3` columns because the time that those measurements come from varies from vowel to vowel.)

<div class="sidenote">Also, you can also use the time (the t column) as the unique id instead of creating new ones, but I like creating sequential numbers better.</div>

```r
my_vowels <- my_vowels_raw %>%
    filter(stress == 1, 
           vowel != "ER") %>%
    mutate(word = tolower(word),
           id = 1:nrow(.)) %>%
    select(id, vowel, word, F1.20.:F2.80.) %>%
    print()

## # A tibble: 1,695 x 13
##       id  vowel    word F1.20. F2.20. F1.35. F2.35. F1.50. F2.50. F1.65.
##    <int> <fctr>   <chr>  <dbl>  <dbl>  <dbl>  <dbl>  <dbl>  <dbl>  <dbl>
##  1     1     AY   timer  742.2 1406.0  507.5 1022.6  580.7 1311.6  518.8
##  2     2     AA barring  540.2 1029.1  568.1  923.1  589.1  969.1  580.3
##  3     3     IH  injury  277.5 2294.8  329.1 2277.8  394.6 2242.6  391.9
##  4     4     EY  change  400.1 2145.7  400.1 2145.7  428.1 2209.8  442.7
##  5     5     AA   heart  861.7 2192.4  680.8 1632.6  540.9 1027.0  537.8
##  6     6     OW    bold  398.9 1382.8  449.2  855.3  462.6  707.9  431.2
##  7     7     AO    also  859.8 1847.5  447.9  990.9  538.9 1007.9  583.9
##  8     8     EY    play  462.5 1585.0  456.1 1601.3  411.3 1684.8  379.3
##  9     9     AW without  483.0 1518.5  594.3 1391.8  605.3 1210.0  547.2
## 10    10     AA    todd  775.3 1336.7  740.5 1162.1  614.6 1065.2  637.6
## # ... with 1,685 more rows, and 3 more variables: F2.65. <dbl>,
## #   F1.80. <dbl>, F2.80. <dbl>
```
…
# F1-F2 Trajectory Plot

The first plot that I want to show how to do is similar to the ones we've done before in the F1-F2 vowel space. But the only difference is that instead of dots we draw lines showing the paths of each vowel. To do that, we need to wrangle with the data a little bit, and then learn how to draw lines using `ggplot`. 

## Data processing

For now, let's just focus on one vowel, my /aɪ/ vowel, since there is some trajectory there.

```r
ay <- my_vowels %>%
    filter(vowel == "AY") %>%
    print()

## # A tibble: 149 x 13
##       id  vowel         word F1.20. F2.20. F1.35. F2.35. F1.50. F2.50.
##    <int> <fctr>        <chr>  <dbl>  <dbl>  <dbl>  <dbl>  <dbl>  <dbl>
##  1     1     AY        timer  742.2 1406.0  507.5 1022.6  580.7 1311.6
##  2    12     AY         time  991.4 1812.8  914.6 1302.7  666.4 1487.3
##  3    18     AY        prize  546.2 1105.5  577.2 1063.1  586.2 1299.1
##  4    29     AY          buy  670.6 1186.4  713.9 1264.9  511.9 1832.2
##  5    38     AY         wire  534.7  943.8  644.8 1118.6  625.2 1409.9
##  6    57     AY       flight  523.8 1108.9  534.8 1174.0  511.2 1354.7
##  7    71     AY        apply  662.8 1208.8  562.8 1001.1  635.1 1118.2
##  8    81     AY       behind  905.0 1338.9  645.4 1146.4  603.1 1162.7
##  9    91     AY firefighters 1140.9 1902.2  477.8 1070.8  585.0 1353.1
## 10    92     AY      arrived  602.1 1120.1  656.2 1116.3  687.8 1284.1
## # ... with 139 more rows, and 4 more variables: F1.65. <dbl>,
## #   F2.65. <dbl>, F1.80. <dbl>, F2.80. <dbl>
```
…
1. The first argument of `gather` is the arbitrary name of a new column that will contain the various column names you'll be condensing down. Since the *names* of columns we want to gather are `F1.50.`, `F2.50.`, etc. I'll call this new column `formant_percent` since it will have information about what formant at what percent into the vowel's duration we're on. 

1. The second argument name of a new column that you want to create that will contain all the values in the columns you want to combine together. Since all the cells in the `F1.50.`, `F2.50.`, etc. columns currently have formant measurements in Hertz, I like to call this column `hz`. 

Finally, as additional arguments to `gather`, you tell it what columns you would like to condense down. By default, it does all of them, but we want to keep the `vowel`, `word`, and `t` columns. You could type `F1.20., F2.20., F1.35., F2.35., F1.50., F2.50., F1.65., F2.65., F1.80., F2.80.`, but that's a lot. Instead, I'll just use the shortcut `starts_with` from `dplyr`. Since all those columns start with `"F"`, this works out well.

So the code ends up looking like this:

```r
ay %>%
    gather(formant_percent, hz, starts_with("F"))

## # A tibble: 1,490 x 5
##       id  vowel         word formant_percent     hz
##    <int> <fctr>        <chr>           <chr>  <dbl>
##  1     1     AY        timer          F1.20.  742.2
##  2    12     AY         time          F1.20.  991.4
##  3    18     AY        prize          F1.20.  546.2
##  4    29     AY          buy          F1.20.  670.6
##  5    38     AY         wire          F1.20.  534.7
##  6    57     AY       flight          F1.20.  523.8
##  7    71     AY        apply          F1.20.  662.8
##  8    81     AY       behind          F1.20.  905.0
##  9    91     AY firefighters          F1.20. 1140.9
## 10    92     AY      arrived          F1.20.  602.1
## # ... with 1,480 more rows
```

Okay, so even though there are just 149 tokens of /aɪ/, now we have 1,490 rows in our dataframe. That's because each vowel is now spread across ten rows, one for each of the ten formant measurements. It might not be clear right now that that's what it did, but we can sort the data by ID and you can get a better picture:

```r
ay %>%
    gather(formant_percent, hz, starts_with("F")) %>%
    arrange(id)

## # A tibble: 1,490 x 5
##       id  vowel  word formant_percent     hz
##    <int> <fctr> <chr>           <chr>  <dbl>
##  1     1     AY timer          F1.20.  742.2
##  2     1     AY timer          F2.20. 1406.0
##  3     1     AY timer          F1.35.  507.5
##  4     1     AY timer          F2.35. 1022.6
##  5     1     AY timer          F1.50.  580.7
##  6     1     AY timer          F2.50. 1311.6
##  7     1     AY timer          F1.65.  518.8
##  8     1     AY timer          F2.65. 1502.9
##  9     1     AY timer          F1.80.  375.6
## 10     1     AY timer          F2.80. 1757.3
## # ... with 1,480 more rows
```
…
## Warning: Too many values at 1490 locations: 1, 2, 3, 4, 5, 6, 7, 8, 9, 10,
## 11, 12, 13, 14, 15, 16, 17, 18, 19, 20, ...
```

Now, it's going to give you some warnings because of the extra period at the end of `F1.50.`. Essentially, it thinks that last period is a separator and it's trying to create a third column but you only told it to do two. We can add the `extra = "drop"` argument to get rid of that warning.

```r
ay %>%
    gather("formant_percent", "hz", starts_with("F")) %>%
    separate(formant_percent, into = c("formant", "percent"), extra = "drop")

## # A tibble: 1,490 x 6
##       id  vowel         word formant percent     hz
##  * <int> <fctr>        <chr>   <chr>   <chr>  <dbl>
##  1     1     AY        timer      F1      20  742.2
##  2    12     AY         time      F1      20  991.4
##  3    18     AY        prize      F1      20  546.2
##  4    29     AY          buy      F1      20  670.6
##  5    38     AY         wire      F1      20  534.7
##  6    57     AY       flight      F1      20  523.8
##  7    71     AY        apply      F1      20  662.8
##  8    81     AY       behind      F1      20  905.0
##  9    91     AY firefighters      F1      20 1140.9
## 10    92     AY      arrived      F1      20  602.1
## # ... with 1,480 more rows
```
    
Okay, so now we have one column saying what formant the measurement is for, and another column saying the timepoint. We need to reverse the squish a little bit, and put the formants into two columns. So the opposite of `gather` is `spread`, and as arguments, you first tell it what column contains the text that will serve as the column names, and then what column contains the numbers you want to be in the cells of those new columns.

```r
ay %>%
    gather("formant_percent", "hz", starts_with("F")) %>%
    separate(formant_percent, into = c("formant", "percent"), extra = "drop") %>%
    spread(formant, hz)

## # A tibble: 745 x 6
##       id  vowel  word percent    F1     F2
##  * <int> <fctr> <chr>   <chr> <dbl>  <dbl>
##  1     1     AY timer      20 742.2 1406.0
##  2     1     AY timer      35 507.5 1022.6
##  3     1     AY timer      50 580.7 1311.6
##  4     1     AY timer      65 518.8 1502.9
##  5     1     AY timer      80 375.6 1757.3
##  6    12     AY  time      20 991.4 1812.8
##  7    12     AY  time      35 914.6 1302.7
##  8    12     AY  time      50 666.4 1487.3
##  9    12     AY  time      65 591.7 1702.4
## 10    12     AY  time      80 492.3 1680.1
## # ... with 735 more rows
```
…
Okay, so we have this dataset. It's essentially the parallel to `my_vowels`, only instead of individual tokens it has the averages. But, remember that we need to turn the data into a tall format for it to plot the way we want? So, we have to take this `my_vowel_means` data and turn it tall. Fortunately, you can copy and paste the code we used before:

```r
my_vowel_means_tall <- my_vowel_means %>%
    gather("formant_percent", "hz", starts_with("F")) %>%
    separate(formant_percent, into = c("formant", "percent"), extra = "drop") %>%
    spread(formant, hz) %>%
    print()

## # A tibble: 70 x 4
##     vowel percent       F1       F2
##  * <fctr>   <chr>    <dbl>    <dbl>
##  1     AA      20 573.2929 1283.990
##  2     AA      35 583.2788 1186.241
##  3     AA      50 587.0858 1131.847
##  4     AA      65 597.9699 1134.865
##  5     AA      80 581.6735 1165.675
##  6     AE      20 499.1188 1714.746
##  7     AE      35 534.7812 1732.918
##  8     AE      50 560.5129 1661.970
##  9     AE      65 576.3792 1612.307
## 10     AE      80 565.8208 1601.208
## # ... with 60 more rows
```
…
Ah, crud. What happened? As it turns out, we're plotting one line for each token because the `group` variable is based on the `id` column, which has a unique value per token. That's not actually what we want though, is it? When we did the F1-F2 plot, we wanted a single line per token, sure, but in this plot, we actually want *two* lines per token, the F1 and the F2. In order for `ggplot` to draw separate lines, you're going to need a column that has a unique value for every line you want to draw. So we want a different line for each formant for each token. In other words, we need to create what I like to think of as a "formant id" column. (And yes, that means just a little bit more data wrangling.) 

The way I like to do this is to use the `unite` function, which simply concatenates the values in multiple columns for each row. Since each token has its own id already, the `id` column, we can combine this with the formant in the `formant` column. To use `unite`, you first type the name of the new column you want to create (I did `formant_id`), then whatever columns you want to combine. By default, they will concatenate without any intervening material, but I like underscores, so I add `sep = "_"` to put an underscore between them. Also, by default, it'll remove the contributing columns. We don't really need the token id column anymore, but I like to keep the formant column so I can color the lines by formant, so we'll add `remove = FALSE` to `unite`. Tag all this on to the end of the list of functions and you get the following block of code.

```r
ay_very_tall <- my_vowels %>%
    filter(vowel == "AY") %>% 
    gather("formant_percent", "hz", starts_with("F")) %>%
    separate(formant_percent, into = c("formant", "percent"), extra = "drop") %>%
    arrange(id) %>%
    unite(formant_id, formant, id, sep = "_", remove = FALSE) %>%
    print()

## # A tibble: 1,490 x 7
##    formant_id    id  vowel  word formant percent     hz
##  *      <chr> <int> <fctr> <chr>   <chr>   <chr>  <dbl>
##  1       F1_1     1     AY timer      F1      20  742.2
##  2       F2_1     1     AY timer      F2      20 1406.0
##  3       F1_1     1     AY timer      F1      35  507.5
##  4       F2_1     1     AY timer      F2      35 1022.6
##  5       F1_1     1     AY timer      F1      50  580.7
##  6       F2_1     1     AY timer      F2      50 1311.6
##  7       F1_1     1     AY timer      F1      65  518.8
##  8       F2_1     1     AY timer      F2      65 1502.9
##  9       F1_1     1     AY timer      F1      80  375.6
## 10       F2_1     1     AY timer      F2      80 1757.3
## # ... with 1,480 more rows
```
…
    # Take the median of each vowel at each timepoint
    group_by(vowel) %>%
    summarize_at(vars(F1.20.:F2.80.), median, na.rm = TRUE) %>%
    
    # Convert it into a "very tall" format
    gather("formant_percent", "hz", starts_with("F")) %>%
    separate(formant_percent, into = c("formant", "percent"), extra = "drop") %>%
    
    # Create the formant id column
    unite(formant_id, formant, vowel, sep = "_", remove = FALSE) %>%
    print()

## # A tibble: 140 x 5
##    formant_id  vowel formant percent    hz
##  *      <chr> <fctr>   <chr>   <chr> <dbl>
##  1      F1_AA     AA      F1      20 540.2
##  2      F1_AE     AE      F1      20 483.1
##  3      F1_AH     AH      F1      20 500.8
##  4      F1_AO     AO      F1      20 544.2
##  5      F1_AW     AW      F1      20 561.1
##  6      F1_AY     AY      F1      20 546.2
##  7      F1_EH     EH      F1      20 467.1
##  8      F1_EY     EY      F1      20 411.1
##  9      F1_IH     IH      F1      20 392.6
## 10      F1_IY     IY      F1      20 363.6
## # ... with 130 more rows
```
…
