…
I'll now load it, together with the rest of the tidyverse:

```r
library(tidyverse)
```

Let's start with a regular dataset. This is one that I've used in lots of my other blog posts. I sat at my kitchen table and read about 300 sentences. The audio was processed using DARLA's fully automated option: it was automatically transcribed, then force-aligned with ProsodyLab (DARLA used ProsodyLab instead of the MFA back then), and then formants were automatically extracted using FAVE. Not the cleanest method, but it's good enough for this post. My guess is that if you've used FAVE before, the output will look very similar to your own data.

<span class="sidenote">Note that I'm using the `read_csv` function instead of `read.csv`. The one with the underscore will preserve the original column names, like "F1@20%", even if it's hard to work with them down the road. Meanwhile `read.csv` will replace troublesome characters with periods, so that "F1@20%" becomes "F1.20.". I'll use the underscore version in this post, which has ramifications for code later on. If things crash for you, check to see that you read your data in with `read_csv`.</span>
```r
joey_raw <- read_csv("http://joeystanley.com/data/joey.csv") %>%
    print()

## # A tibble: 3,504 x 43
##    name  sex   vowel stress pre_word word  fol_word    F1    F2 F3   
##    <chr> <chr> <chr>  <dbl> <chr>    <chr> <chr>    <dbl> <dbl> <chr>
##  1 LA00… M     AY         1 THE      THAI  SP        826  1520. 2529…
##  2 LA00… M     AY         1 SP       TIMER SP        581. 1306  1835…
##  3 LA00… M     ER         0 SP       TIMER SP        484. 1449. 1644…
##  4 LA00… M     IY         1 SP       HERE  WE'LL     235. 2044. 3106…
##  5 LA00… M     IY         1 HERE     WE'LL SP        302. 1974. 2549…
##  6 LA00… M     AA         1 SP       BARR… INJURY    573.  925. 2296…
##  7 LA00… M     IH         1 BARRING  INJU… OR        362. 2262. 2591…
##  8 LA00… M     IY         0 BARRING  INJU… OR        258. 2222. 3197…
##  9 LA00… M     ER         0 INJURY   OR    A         370.  872. 1654…
## 10 LA00… M     EY         1 A        CHAN… OF        428. 2210. 2531…
## # … with 3,494 more rows, and 33 more variables:
## #   F1_LobanovNormed_unscaled <dbl>, F2_LobanovNormed_unscaled <dbl>,
## #   B1 <dbl>, B2 <dbl>, B3 <chr>, t <dbl>, beg <dbl>, end <dbl>,
## #   dur <dbl>, plt_vclass <chr>, plt_manner <chr>, plt_place <chr>,
## #   plt_voice <chr>, plt_preseg <chr>, plt_folseq <chr>, pre_seg <chr>,
## #   fol_seg <chr>, context <chr>, vowel_index <dbl>, pre_word_trans <chr>,
## #   word_trans <chr>, fol_word_trans <chr>, `F1@20%` <dbl>,
## #   `F2@20%` <dbl>, `F1@35%` <dbl>, `F2@35%` <dbl>, `F1@50%` <dbl>,
## #   `F2@50%` <dbl>, `F1@65%` <dbl>, `F2@65%` <dbl>, `F1@80%` <dbl>,
…
The final result is a dataframe with 275 rows and 13 columns. Much more manageable than the 3504 rows and 43 columns I had before. 

```r
joey <- joey_raw %>%
    filter(stress == 1, 
           !vowel %in% c("AY", "AW", "OY", "ER"), 
           !fol_seg %in% c("R", "L", "M", "N", "NG", "Y", "W")) %>%
    select(vowel, word, t, contains("@")) %>%
    group_by(vowel) %>%
    top_n(25, t) %>%
    ungroup() %>%
    print()

## # A tibble: 275 x 13
##    vowel word      t `F1@20%` `F2@20%` `F1@35%` `F2@35%` `F1@50%` `F2@50%`
##    <chr> <chr> <dbl>    <dbl>    <dbl>    <dbl>    <dbl>    <dbl>    <dbl>
##  1 AO    CROS…  623.     379.     942.     426      950.     534.     978.
##  2 AO    WASH…  703.     609.     937.     612.     940      630.     996.
##  3 AO    COST   738.     871.    1398.     862.    1371.     637.    1040.
##  4 AO    FROST  771.     564.    1034.     621.    1046.     283.    1016 
##  5 UH    LOOK…  885.     439.    1074.     436.    1082.     380.    1210.
##  6 AH    COUP…  891.     405.    1316.     405.    1316.     492.    1236.
##  7 AH    OTHER  899.     402.    1298      407.    1281.     481.    1103.
##  8 AO    CROSS  904.     630.    1094      611.    1106      595.    1124 
##  9 UH    GOOD   908.     388.    1525.     362.    1518.     376.    1466.
## 10 AH    OTHER  910.     466.    2088.     960.    1743.     475.    1340.
## # … with 265 more rows, and 4 more variables: `F1@65%` <dbl>,
## #   `F2@65%` <dbl>, `F1@80%` <dbl>, `F2@80%` <dbl>
```
…
So, if all you need to do is make that kind of plot, then you're golden and you don't need to reshape the data at all. The downside is that if you want to work with trajectories, you can't really visualize them very well.







## One row per measurement: Spectrogram-like plots

As it turns out, you can store the exact same data using very different structures. The previous section looked at plots when the data was in a one-token-per-row format. It had 275 rows and 13 columns. We can reshape this data so that each individual formant measurement gets is own row. Basically, we're collapsing all those `F1@20%`, `F2@20%` columns down into one. Here's what that looks like:

```r
## # A tibble: 2,750 x 5
##    vowel word         t formant_percent    hz
##    <chr> <chr>    <dbl> <chr>           <dbl>
##  1 AO    CROSSING  623. F1@20%           379.
##  2 AO    CROSSING  623. F2@20%           942.
##  3 AO    CROSSING  623. F1@35%           426 
##  4 AO    CROSSING  623. F2@35%           950.
##  5 AO    CROSSING  623. F1@50%           534.
##  6 AO    CROSSING  623. F2@50%           978.
##  7 AO    CROSSING  623. F1@65%           548.
##  8 AO    CROSSING  623. F2@65%          1018.
##  9 AO    CROSSING  623. F1@80%           534.
## 10 AO    CROSSING  623. F2@80%          1037.
## # … with 2,740 more rows
```

Notice that a new column, `formant_percent` contains the column names `F1@20%`, `F2@20%`, etc. In corresponding rows, we have the actual formant measurement in the `hz` column. This is the exact same data, only now we have 2,750 rows of just 5 columns. 

So how do we do this transformation---and can we clean it up a little bit better?


In a [previous tutorial](/blog/making-vowel-plots-in-r-part-2), I show how to accomplish this task using `tidyr::gather`. 

```r
joey %>%
    gather(formant_percent, hz, contains("@"))

## # A tibble: 2,750 x 5
##    vowel word           t formant_percent    hz
##    <chr> <chr>      <dbl> <chr>           <dbl>
##  1 AO    CROSSING    623. F1@20%           379.
##  2 AO    WASHINGTON  703. F1@20%           609.
##  3 AO    COST        738. F1@20%           871.
##  4 AO    FROST       771. F1@20%           564.
##  5 UH    LOOKED      885. F1@20%           439.
##  6 AH    COUPLE      891. F1@20%           405.
##  7 AH    OTHER       899. F1@20%           402.
##  8 AO    CROSS       904. F1@20%           630.
##  9 UH    GOOD        908. F1@20%           388.
## 10 AH    OTHER       910. F1@20%           466.
## # … with 2,740 more rows
```

This method is not obsolete *per se*, but the `gather` function is considered "retired" because a new and improved function, `pivot_longer`, can get the job done better. It is recommended that new code use `pivot_longer` instead of `gather` now. If you'd like to learn more about `pivot_longer`, check out the [vignette on pivotting](https://tidyr.tidyverse.org/articles/pivot.html). I'll just go over some of the most relevant details here.

So, if you're like me and are very used to `gather`, you can mimic its syntax pretty well with `pivot_longer`.

```r
joey %>%
    pivot_longer(contains("@"), 
                 names_to = "formant_percent", 
                 values_to = "hz")

## # A tibble: 2,750 x 5
##    vowel word         t formant_percent    hz
##    <chr> <chr>    <dbl> <chr>           <dbl>
##  1 AO    CROSSING  623. F1@20%           379.
##  2 AO    CROSSING  623. F2@20%           942.
##  3 AO    CROSSING  623. F1@35%           426 
##  4 AO    CROSSING  623. F2@35%           950.
##  5 AO    CROSSING  623. F1@50%           534.
##  6 AO    CROSSING  623. F2@50%           978.
##  7 AO    CROSSING  623. F1@65%           548.
##  8 AO    CROSSING  623. F2@65%          1018.
##  9 AO    CROSSING  623. F1@80%           534.
## 10 AO    CROSSING  623. F2@80%          1037.
## # … with 2,740 more rows
```

But it turns out that `pivot_longer` has some pretty awesome additional functionality that `gather` didn't have!

First off, we shouldn't be satisfied with the `formant_percent` column. It's a single column containing two pieces of information: what formant the measurement is, and how far into the vowel's duration it came from. If you want, you can easily split the two up using `separate`.

```r
joey %>%
    pivot_longer(contains("@"), 
                 names_to = "formant_percent", 
                 values_to = "hz")%>%
    separate(formant_percent, 
             c("formant", "percent"), 
             extra = "drop")

## # A tibble: 2,750 x 6
##    vowel word         t formant percent    hz
##    <chr> <chr>    <dbl> <chr>   <chr>   <dbl>
##  1 AO    CROSSING  623. F1      20       379.
##  2 AO    CROSSING  623. F2      20       942.
##  3 AO    CROSSING  623. F1      35       426 
##  4 AO    CROSSING  623. F2      35       950.
##  5 AO    CROSSING  623. F1      50       534.
##  6 AO    CROSSING  623. F2      50       978.
##  7 AO    CROSSING  623. F1      65       548.
##  8 AO    CROSSING  623. F2      65      1018.
##  9 AO    CROSSING  623. F1      80       534.
## 10 AO    CROSSING  623. F2      80      1037.
## # … with 2,740 more rows
```

However, you can now incorporate that separation into the `pivot_wider` itself! One potential way to do it is by using the `names_sep` argument. You provide the string that separates the eventual column names and it'll take care of splitting it up.

```r
joey %>%
    pivot_longer(contains("@"), 
                 c("formant", "percent"), 
                 names_sep = "@", 
                 values_to = "hz")

## # A tibble: 2,750 x 6
##    vowel word         t formant percent    hz
##    <chr> <chr>    <dbl> <chr>   <chr>   <dbl>
##  1 AO    CROSSING  623. F1      20%      379.
##  2 AO    CROSSING  623. F2      20%      942.
##  3 AO    CROSSING  623. F1      35%      426 
##  4 AO    CROSSING  623. F2      35%      950.
##  5 AO    CROSSING  623. F1      50%      534.
##  6 AO    CROSSING  623. F2      50%      978.
##  7 AO    CROSSING  623. F1      65%      548.
##  8 AO    CROSSING  623. F2      65%     1018.
##  9 AO    CROSSING  623. F1      80%      534.
## 10 AO    CROSSING  623. F2      80%     1037.
## # … with 2,740 more rows
```

But this is a little problematic because the values in `percent` column still have the "%" symbol attached. With `separate` we could just toss it with `extra = "drop"` but it doesn't look so easy with `pivot_wider`. 

Fortunately, `pivot_wider` has a more sophisticated way to separate columns. Instead of `names_sep`, we can use `names_pattern`. Here, we use what's called a *regular expression* to capture the necessary groups within the old column names. So, if we think about all our column names `F1@20%`, `F2@20%`, `F1@35%`, etc. we can see that the "template" is  "F#**@**##**%**"---that is, an *F* followed by a number, then the @ symbol, two numbers, and then the % symbol. So, knowing that `\\d` is the regular expression for a digit, we can use the search pattern `"(F\\d)@(\\d\\d)%"` to represent our column names. The crucial part here is that we have the information we want to keep, `F\\d` and `\\d\\d`, in parentheses. `pivot_wider` will then use those captured groups as new column names.

```r
joey %>%
    pivot_longer(cols = contains("@"), 
                 names_to = c("formant", "percent"), 
                 names_pattern = "(F\\d)@(\\d\\d)%", 
                 values_to = "hz")

## # A tibble: 2,750 x 6
##    vowel word         t formant percent    hz
##    <chr> <chr>    <dbl> <chr>   <chr>   <dbl>
##  1 AO    CROSSING  623. F1      20       379.
##  2 AO    CROSSING  623. F2      20       942.
##  3 AO    CROSSING  623. F1      35       426 
##  4 AO    CROSSING  623. F2      35       950.
##  5 AO    CROSSING  623. F1      50       534.
##  6 AO    CROSSING  623. F2      50       978.
##  7 AO    CROSSING  623. F1      65       548.
##  8 AO    CROSSING  623. F2      65      1018.
##  9 AO    CROSSING  623. F1      80       534.
## 10 AO    CROSSING  623. F2      80      1037.
## # … with 2,740 more rows
```
…
There's one more thing that can be done, if you'd like. By default, `pivot_wider` will make these new columns into character vectors. In our case, we may want to turn them into factors and numberic vectors. 

We can specify this with the `names_ptypes` argument. As its value, we provide a list of the column names and then how they should be encoded. For `formant`, I'm turning it into a factor, making sure to specify that the order of the levels goes "F1" first and then "F2". For `percent`, I'm just ensuring that it turns into an integer.

```r
joey %>%
    pivot_longer(cols = contains("@"), 
                 names_to = c("formant", "percent"), 
                 names_pattern = "(F\\d)@(\\d\\d)%", 
                 names_ptypes = list(formant = factor(levels = c("F1", "F2")),
                                     percent = integer()), 
                 values_to = "hz")

## # A tibble: 2,750 x 6
##    vowel word         t formant percent    hz
##    <chr> <chr>    <dbl> <fct>     <int> <dbl>
##  1 AO    CROSSING  623. F1           20  379.
##  2 AO    CROSSING  623. F2           20  942.
##  3 AO    CROSSING  623. F1           35  426 
##  4 AO    CROSSING  623. F2           35  950.
##  5 AO    CROSSING  623. F1           50  534.
##  6 AO    CROSSING  623. F2           50  978.
##  7 AO    CROSSING  623. F1           65  548.
##  8 AO    CROSSING  623. F2           65 1018.
##  9 AO    CROSSING  623. F1           80  534.
## 10 AO    CROSSING  623. F2           80 1037.
## # … with 2,740 more rows
```
…
So, if you're interested in plotting vowel trajectories this way, then you'll need to reshape the data a bit to get it to work. The downside is that if you want to plot these in the F1-F2 space, you'll have to do yet another technique. 






## One row per timepoint: Trajectories in the vowel space

The last main way that you may need to reshape your data is similar to the one-row-per-measurement, except we want F1 and F2 pairs to be on the same row. I'm calling this one the one-row-per-timepoint. Here's what this format looks like. It's very similar except F1 ad F2 are spread out into two different columns. 

```r
## # A tibble: 1,375 x 6
##    vowel word           t percent    F1    F2
##    <chr> <chr>      <dbl>   <int> <dbl> <dbl>
##  1 AO    CROSSING    623.      20  379.  942.
##  2 AO    CROSSING    623.      35  426   950.
##  3 AO    CROSSING    623.      50  534.  978.
##  4 AO    CROSSING    623.      65  548. 1018.
##  5 AO    CROSSING    623.      80  534. 1037.
##  6 AO    WASHINGTON  703.      20  609.  937.
##  7 AO    WASHINGTON  703.      35  612.  940 
##  8 AO    WASHINGTON  703.      50  630.  996.
##  9 AO    WASHINGTON  703.      65  627. 1074.
## 10 AO    WASHINGTON  703.      80  612. 1080.
## # … with 1,365 more rows
```

In a [previous tutorial](/blog/making-vowel-plots-in-r-part-2), I show how to accomplish this task using `gather`, then `separate`, and then `spread` all in a row. It was a whole ordeal.

```r
joey %>%
    gather("formant_percent", "hz", starts_with("F")) %>%
    separate(formant_percent, into = c("formant", "percent"), extra = "drop") %>%
    spread(formant, hz)

## # A tibble: 1,375 x 6
##    vowel word        t percent    F1    F2
##    <chr> <chr>   <dbl> <chr>   <dbl> <dbl>
##  1 AA    ADOPTED 1622. 20       498  1621.
##  2 AA    ADOPTED 1622. 35       609. 1382.
##  3 AA    ADOPTED 1622. 50       658. 1184.
##  4 AA    ADOPTED 1622. 65       683. 1160.
##  5 AA    ADOPTED 1622. 80       554. 1237.
##  6 AA    BODY    1785. 20       430. 1149.
##  7 AA    BODY    1785. 35       585. 1054.
##  8 AA    BODY    1785. 50       683. 1103.
##  9 AA    BODY    1785. 65       632. 1169.
## 10 AA    BODY    1785. 80       597. 1253.
## # … with 1,365 more rows
```

It worked, but three functions was cumbersome and complicated. I even put a note in that tutorial saying it took me forever to figure out how to do that. I had to do it so often that I even wrote a custom function to accomplish it and just had it at the top of all my scripts. 

Using the new `pivot_longer` function, here's one way that closely approximates my old code. I use the same `pivot_longer` to make it in the one-measurement-per-row format we had before and then I use the inverse function, `pivot_wider`, to spread it back out a little bit. 

```r
joey %>%
    pivot_longer(cols = contains("@"), 
                 names_to = c("formant", "percent"), 
                 names_pattern = "(F\\d)@(\\d\\d)%", 
                 names_ptypes = list(percent = integer()), 
                 values_to = "hz") %>%
    pivot_wider(names_from = formant, values_from = hz)

## # A tibble: 1,375 x 6
##    vowel word           t percent    F1    F2
##    <chr> <chr>      <dbl>   <int> <dbl> <dbl>
##  1 AO    CROSSING    623.      20  379.  942.
##  2 AO    CROSSING    623.      35  426   950.
##  3 AO    CROSSING    623.      50  534.  978.
##  4 AO    CROSSING    623.      65  548. 1018.
##  5 AO    CROSSING    623.      80  534. 1037.
##  6 AO    WASHINGTON  703.      20  609.  937.
##  7 AO    WASHINGTON  703.      35  612.  940 
##  8 AO    WASHINGTON  703.      50  630.  996.
##  9 AO    WASHINGTON  703.      65  627. 1074.
## 10 AO    WASHINGTON  703.      80  612. 1080.
## # … with 1,365 more rows
```

Believe it or not though, `pivot_longer` can accomplish this in just one function call now. It's incredible. If you look at the code in the pivot vignette, specifically in the section called ["Multiple observations per row"](https://tidyr.tidyverse.org/articles/pivot.html#multiple-observations-per-row), you'll see an example using a dataset called `anscombe`. This is structurally very similar to our original data frame.

The way you pull this off I swear is black magic. In the `names_to` argument, instead of `"formant"`, if you just type the keyword `".value"` (with the period), it will somehow know to spread F1 and F2 into separate columns. Try it!

```r
joey %>%
    pivot_longer(cols = contains("@"), 
                 names_to = c(".value", "percent"), 
                 names_pattern = "(F\\d)@(\\d\\d)%", 
                 names_ptypes = list(percent = integer()))

## # A tibble: 1,375 x 6
##    vowel word           t percent    F1    F2
##    <chr> <chr>      <dbl>   <int> <dbl> <dbl>
##  1 AO    CROSSING    623.      20  379.  942.
##  2 AO    CROSSING    623.      35  426   950.
##  3 AO    CROSSING    623.      50  534.  978.
##  4 AO    CROSSING    623.      65  548. 1018.
##  5 AO    CROSSING    623.      80  534. 1037.
##  6 AO    WASHINGTON  703.      20  609.  937.
##  7 AO    WASHINGTON  703.      35  612.  940 
##  8 AO    WASHINGTON  703.      50  630.  996.
##  9 AO    WASHINGTON  703.      65  627. 1074.
## 10 AO    WASHINGTON  703.      80  612. 1080.
## # … with 1,365 more rows
…
