…
# Simulating lots of games

Okay, so I've got the code for simulating a game of *Chutes and Ladders* and in the example above, I finished a game in just 17 moves. Is that average or did I finish a bit sooner than normal? 

To answer this question, I'll just run the `simulate_game` function a whole bunch of times and then see if I can see some generalizations. I'll accomplish this with `map` from the `purrr` package.

```r
set.seed(1)
games <- tibble(game_num = 1:1000) %>%
  mutate(game = map(game_num, simulate_game)) %>%
  unnest()
games

## # A tibble: 36,856 x 7
##    game_num turn_num start  roll  land chute_or_ladder   end
##       <int>    <int> <dbl> <int> <dbl> <chr>           <dbl>
##  1        1        1     0     2     2 <NA>                2
##  2        1        2     2     3     5 <NA>                5
##  3        1        3     5     4     9 chute              31
##  4        1        4    31     6    37 <NA>               37
##  5        1        5    37     2    39 <NA>               39
##  6        1        6    39     6    45 <NA>               45
##  7        1        7    45     6    51 chute              67
##  8        1        8    67     4    71 chute              91
##  9        1        9    91     4    95 ladder             76
## 10        1       10    76     1    77 <NA>               77
## # … with 36,846 more rows
```

This `games` object now contains the data for 1000 games of *Chutes and Ladders*. It's nothing more than a bunch of outputs from the `simulate_game` function all combined into one mega dataframe. It's got about 37K rows in it, so there's a lot of information. We can now take this and get some summarized information about each of the games. With `summarize` I have reduced this down into just one row per game, with information about how many turns the game took, as well as how many chutes and ladders I went through.

```r
games_summary <- games %>%
  group_by(game_num) %>%
  summarize(turns = max(turn_num),
            n_chutes  = sum(chute_or_ladder == "chute", na.rm = TRUE),
            n_ladders = sum(chute_or_ladder == "ladder", na.rm = TRUE))
games_summary

## # A tibble: 1,000 x 4
##    game_num turns n_chutes n_ladders
##       <int> <dbl>    <int>     <int>
##  1        1    17        3         1
##  2        2     9        2         0
##  3        3    29        6         4
##  4        4    44        5         5
##  5        5    47        4         7
##  6        6    96        6        14
##  7        7    26        4         4
##  8        8    35        0         3
##  9        9    46        5         7
## 10       10    39        2         6
## # … with 990 more rows
```
…
Now I'll combine all this game data.

```r
modified_games <- bind_rows(list(original = games,
                                 `w/o longest ladder`  = games_without_longest_ladder,
                                 `w/o longest chute`   = games_without_longest_chute),
                            .id = "modification") %>%
    group_by(modification, game_num) %>%
    summarize(turns = max(turn_num),
              n_chutes  = sum(chute_or_ladder == "chute", na.rm = TRUE),
              n_ladders = sum(chute_or_ladder == "ladder", na.rm = TRUE))
modified_games

## # A tibble: 3,000 x 5
## # Groups:   modification [3]
##    modification game_num turns n_chutes n_ladders
##    <chr>           <int> <dbl>    <int>     <int>
##  1 original            1    17        3         1
##  2 original            2     9        2         0
##  3 original            3    29        6         4
##  4 original            4    44        5         5
##  5 original            5    47        4         7
##  6 original            6    96        6        14
##  7 original            7    26        4         4
##  8 original            8    35        0         3
##  9 original            9    46        5         7
## 10 original           10    39        2         6
## # … with 2,990 more rows
```
…
