…
<img src="/images/plots/overlap_tutorial/merger-correlation.png" width = "100%">

Because I've randomly split by data up, there's really no pattern, but if you suspect a correlation between mergers in your dataset, this plot might be more informative for you.

Another plot you may want to see is the correlation between the Pillai score and the Bhattacharyya's Affinity. We'll calculate both of them at once and create an `overlap_table` object.  

~~~~~~r
overlap_table <- all_pairs %>%
    group_by(fake_speaker, vowel_pair) %>%
    summarize(pillai = pillai2(F1, F2, vowel),
              bhatt  = bhatt(F1, F2, vowel))
overlap_table

## # A tibble: 24 x 4
## # Groups:   fake_speaker [8]
##    fake_speaker vowel_pair pillai bhatt
##    <chr>        <chr>       <dbl> <dbl>
##  1 Andy         fail fell  0.762  0.241
##  2 Andy         low back   0.0128 0.866
##  3 Andy         pin pen    0.381  0.807
##  4 Betty        fail fell  0.660  0.333
##  5 Betty        low back   0.0438 0.907
##  6 Betty        pin pen    0.367  0.757
##  7 Chuck        fail fell  0.862  0.104
##  8 Chuck        low back   0.0272 0.898
##  9 Chuck        pin pen    0.322  0.788
## 10 Dolly        fail fell  0.822  0.145
## # … with 14 more rows
…
