…
From here, you can choose a pseudonym that you feel is approrpriate for that person. Unfortunately, because race and ethnicity data are not included here, if your speaker is part of a minority group and you would like their pseudonym to reflect their identity that more visibly, these names might not be the most approrpiate since white Americans dominate this dataset. In such cases, you might set `n` to a larger number and scan through to find a more suitable name for your speaker if you want.

# Filtering out existing pseudonyms

Okay, so this works really well for when you want to find a single pseudonym. However, a lot of us have studies that include multiple people, perhaps a couple dozen. Large projects have hundreds of names. We'll get to how to automate this process later, but the first thing we want to watch out for is duplicate names. *Michael* has been one of the most common male names for decades. If we just went with what the most common names were during our participants' years of birth, we'd end up with a whole bunch of Michaels.

What we need to do is display the most names that were common for that year---except for the ones that we've already used. It's probably not a good idea to use the same pseudonym within a project. I don't even like repeating names across projects. So if *Michael* was used for a speaker in my very first project, I'll never use that name again. Because I've recorded a lot of nineties babies, my latest batch of interviewees are getting some unusual names<sup>4</sup><span class="sidenote"><sup>4</sup> They were from Utah anyway, so it strangely <a href = "https://bycommonconsent.com/2016/03/28/mormons-name-their-kids-the-darnedest-things-born-in-2015-edition/">fits</a></span>, so I've resorted to using alternative forms, like *Mike*, which I resisted initially, but have come to accept.

Anyway, all this is to say that you'll need a way to keep track of what names you've used. Probably the most straightforward way to do this is to use whatever metadata spreadsheet you have for your project. Once you've chosen a name for one person, save it to your spreadsheet. When you want to choose a name for someone else, reread the spreadsheet again, pull out the pseudonym column, and exclude names that are in that list. Here's a sample metadata spreadsheet I've created:

```r
used_names <- read_csv("sample_metadata.csv") %>%
    print()

## # A tibble: 100 x 3
##    name      sex     yob
##    <chr>     <chr> <dbl>
##  1 Stephen   M      1992
##  2 Brandon   M      1997
##  3 Taylor    F      1997
##  4 Zachary   M      1996
##  5 Sara      F      1992
##  6 Emily     F      1992
##  7 Samantha  F      1993
##  8 William   M      1998
##  9 John      M      1990
## 10 Christina F      1992
## # … with 90 more rows
```
…
```r
for (i in 1:nrow(to_be_named)) {
    to_be_named$name[[i]] <- assign_nym(yob    = to_be_named$yob[[i]], 
                                        sx     = to_be_named$sex[[i]], 
                                        ignore = to_be_named$name[1:i])
}
```

The result is that `to_be_named` now has the `name` column populated with new, unique pseudonyms that are appropriate for their age and sex.

```r
to_be_named

## # A tibble: 100 x 3
##      yob sex   name  
##    <int> <chr> <chr> 
##  1  1997 F     Sydney
##  2  1991 M     Travis
##  3  1995 F     Brooke
##  4  1995 M     Jesse 
##  5  1994 F     Andrea
##  6  2000 M     Noah  
##  7  1991 F     Erica 
##  8  1998 M     Hunter
##  9  1990 F     Amy   
## 10  1994 M     Alex  
## # … with 90 more rows
```
…
        rowid_to_column("rank") %>%
        filter(!name %in% used_names$name,
               !name %in% ignored_names, 
               !name %in% ignore) %>% 
        pull(name) %>%
        first()
}
for (i in 1:nrow(to_be_named)) {
    to_be_named$name[[i]] <- assign_nym(to_be_named$yob[[i]], 
                                        to_be_named$sex[[i]], 
                                        to_be_named$name[1:i])
}
to_be_named

## # A tibble: 100 x 3
##      yob sex   name   
##    <int> <chr> <chr>  
##  1  1997 F     Emma   
##  2  1991 M     Jeffrey
##  3  1995 F     Sydney 
##  4  1995 M     Alex   
##  5  1994 F     Marissa
##  6  2000 M     Hunter 
##  7  1991 F     Andrea 
##  8  1998 M     Noah   
##  9  1990 F     Erica  
## 10  1994 M     Jesse  
## # … with 90 more rows
```
…
