…
```r
library(tidyverse)
library(joeyr)
library(joeysvowels)
```

## Calculating Pillai scores

I'll start by loading a sample dataset. This is a simplified dataset of 10 English speakers from the state of Idaho, which comes from my [`joeysvowels` package](https://joeystanley.github.io/joeysvowels/). It contains F1--F4 measurements from a random sample of 10 tokens from 11 monophthongs.

```r
idahoans <- joeysvowels::idahoans %>%
  print()

## # A tibble: 1,100 x 7
##    speaker sex    vowel    F1    F2    F3    F4
##    <fct>   <chr>  <chr> <dbl> <dbl> <dbl> <dbl>
##  1 01      female AA     699. 1655. 2019. 3801.
##  2 01      female AA     685. 1360. 1914. 4257.
##  3 01      female AA     713. 1507. 2460. 3617.
##  4 01      female AA     801. 1143. 1868. 2908.
##  5 01      female AA     757. 1258. 1772. 2778.
##  6 01      female AA     804. 1403. 2339. 4299.
##  7 01      female AA     664. 1279. 1714. 2103.
##  8 01      female AA     757. 1325. 1929. 2660.
##  9 01      female AA     730. 1578. 2297. 2963.
## 10 01      female AA     700. 1546. 2109. 3432.
## # … with 1,090 more rows
```
…
1. Then, I'll normalize using the method described in the *Atlas of North American English*. I won't go into detail about how this normalization procedure works, but I've written it up as a function and made it available in my sandbox [`joeyr` package](https://joeystanley.github.io/joeyr/). To get this to work, I'll first specify which columns contain the formant measurements to normalize (`F1` and `F2`). I also need to specify which column contains unique values for each vowel token; in this case, since it's one row per token (*i.e.* this isn't trajectory data), I can just supply the row names. I'll then specify which column contains unique values per speaker.

1. Finally, I'll normalize the data using the ΔF technique described in Johnson (2020). Again, I won't go into detail, but I wanted to try it out anyway because it's less common and because it takes into account F3 and F4 as well. I've also wrapped that one up into a function in my `{{joeyr}}` package, `norm_deltaF`, and I just need to specify the formant columns to be used.

So I can easily incorporate all three of these normalization procedures in just three lines of a tidyverse pipeline. Pretty cool!

```r
idahoans_norm <- idahoans %>%
  group_by(speaker) %>%
  mutate(across(c(F1, F2), scale, .names = "{col}_lob")) %>%
  norm_anae(hz_cols = c(F1, F2), vowel_id = row.names(.), speaker_id = speaker) %>%
  norm_deltaF(F1, F2, F3, F4) %>%
  print()

## # A tibble: 1,100 x 15
## # Groups:   speaker [10]
##    speaker sex   vowel    F1    F2 F1_anae F2_anae    F3    F4 F1_deltaF
##    <fct>   <chr> <chr> <dbl> <dbl>   <dbl>   <dbl> <dbl> <dbl>     <dbl>
##  1 01      fema… AA     699. 1655.    714.   1690. 2019. 3801.     0.637
##  2 01      fema… AA     685. 1360.    700.   1388. 1914. 4257.     0.624
##  3 01      fema… AA     713. 1507.    728.   1539. 2460. 3617.     0.650
##  4 01      fema… AA     801. 1143.    818.   1167. 1868. 2908.     0.730
##  5 01      fema… AA     757. 1258.    772.   1284. 1772. 2778.     0.689
##  6 01      fema… AA     804. 1403.    821.   1432. 2339. 4299.     0.733
##  7 01      fema… AA     664. 1279.    678.   1306. 1714. 2103.     0.605
##  8 01      fema… AA     757. 1325.    773.   1353. 1929. 2660.     0.690
##  9 01      fema… AA     730. 1578.    746.   1611. 2297. 2963.     0.665
## 10 01      fema… AA     700. 1546.    715.   1578. 2109. 3432.     0.638
## # … with 1,090 more rows, and 5 more variables: F2_deltaF <dbl>,
## #   F3_deltaF <dbl>, F4_deltaF <dbl>, F1_lob[,1] <dbl>, F2_lob[,1] <dbl>
```
…
I can kinda illustrate this by visualizing the same speaker's data four different ways: once for the raw data and once for each normalization type. First, I'll have to reshape it a little bit so that all the F1 values are in the same column. I can do that with `pivot_longer`. Before I do that, I'll change the raw `F1` column to `F1_raw` so that the names all have the same template of `{formant}_{procedure}`.

```r
idahoans_reshaped <- idahoans_norm %>%
  rename_with(~paste0(., "_raw"), c(F1, F2, F3, F4)) %>%
  rename_with(~str_replace(., "norm", "delta_F"), ends_with("norm")) %>%
  pivot_longer(cols = starts_with("F"),
               names_to = c(".value", "method"),
               names_pattern = c("(F\\d)_(\\w+)"),
               values_to = "value") %>%
  print()

## # A tibble: 4,400 x 8
## # Groups:   speaker [10]
##    speaker sex    vowel method  F1[,1]   F2[,1]      F3      F4
##    <fct>   <chr>  <chr> <chr>    <dbl>    <dbl>   <dbl>   <dbl>
##  1 01      female AA    raw    699.    1655.    2019.   3801.  
##  2 01      female AA    anae   714.    1690.      NA      NA   
##  3 01      female AA    deltaF   0.637    1.51     1.84    3.46
##  4 01      female AA    lob      1.15    -0.341   NA      NA   
##  5 01      female AA    raw    685.    1360.    1914.   4257.  
##  6 01      female AA    anae   700.    1388.      NA      NA   
##  7 01      female AA    deltaF   0.624    1.24     1.74    3.88
##  8 01      female AA    lob      1.04    -0.906   NA      NA   
##  9 01      female AA    raw    713.    1507.    2460.   3617.  
## 10 01      female AA    anae   728.    1539.      NA      NA   
## # … with 4,390 more rows
```

I'll then pick a speaker, we'll say speaker `02`, and just get their two low back vowels. (There will be NAs in the F3 and F4 columns because they were not involved in the Lobanov or ANAE normalizations.)

```r
s02_reshaped <- idahoans_reshaped %>%
  filter(speaker == "02", 
         vowel %in% c("AA", "AO")) %>%
  print()

## # A tibble: 80 x 8
## # Groups:   speaker [1]
##    speaker sex   vowel method  F1[,1]   F2[,1]      F3      F4
##    <fct>   <chr> <chr> <chr>    <dbl>    <dbl>   <dbl>   <dbl>
##  1 02      male  AA    raw    449.    1081.    2593.   3047.  
##  2 02      male  AA    anae   592.    1423.      NA      NA   
##  3 02      male  AA    deltaF   0.478    1.15     2.76    3.24
##  4 02      male  AA    lob      0.196   -0.833   NA      NA   
##  5 02      male  AA    raw    582.    1105.    2593.   3757.  
##  6 02      male  AA    anae   766.    1456.      NA      NA   
##  7 02      male  AA    deltaF   0.619    1.18     2.76    4.00
##  8 02      male  AA    lob      1.68    -0.765   NA      NA   
##  9 02      male  AA    raw    512.    1152.    2238.   3655.  
## 10 02      male  AA    anae   675.    1517.      NA      NA   
## # … with 70 more rows
```
…
